[
  {
    "type": "interface",
    "name": "IntegerSet",
    "inheritance": "",
    "members": [
      {
        "type": "attribute",
        "extAttrs": "",
        "idlType": {
          "sequence": false,
          "array": false,
          "idlType": "unsigned long",
          "nullable": false
        },
        "name": "cardinality",
        "readonly": true,
        "getraises": "",
        "setraises": ""
      },
      {
        "type": "operation",
        "idlType": "void",
        "name": "_union",
        "arguments": [
          {
            "name": "ints",
            "type": {
              "sequence": false,
              "array": false,
              "idlType": "long",
              "nullable": false
            },
            "variadic": true,
            "optional": false,
            "extAttrs": ""
          }
        ],
        "raises": "",
        "omittable": false
      },
      {
        "type": "operation",
        "idlType": "void",
        "name": "intersection",
        "arguments": [
          {
            "name": "ints",
            "type": {
              "sequence": false,
              "array": false,
              "idlType": "long",
              "nullable": false
            },
            "variadic": true,
            "optional": false,
            "extAttrs": ""
          }
        ],
        "raises": "",
        "omittable": false
      }
    ],
    "extAttrs": ""
  }
]