[
  {
    "type": "module",
    "name": "M",
    "definitions": [
      {
        "type": "interface",
        "name": "A",
        "inheritance": "",
        "members": [],
        "extAttrs": ""
      },
      {
        "type": "interface",
        "name": "B",
        "inheritance": [
          "A"
        ],
        "members": [],
        "extAttrs": ""
      }
    ],
    "extAttrs": ""
  },
  {
    "type": "module",
    "name": "N",
    "definitions": [
      {
        "type": "interface",
        "name": "Y",
        "inheritance": [
          "M::B"
        ],
        "members": [
          {
            "type": "operation",
            "idlType": "void",
            "name": "op",
            "arguments": [
              {
                "name": "a",
                "type": {
                  "sequence": false,
                  "array": false,
                  "idlType": "A",
                  "nullable": false
                },
                "variadic": false,
                "optional": false,
                "extAttrs": ""
              }
            ],
            "raises": "",
            "omittable": false
          }
        ],
        "extAttrs": ""
      }
    ],
    "extAttrs": ""
  }
]